<?xml version="1.0"?>
<robot name="robot_description" xmlns:xacro="http://ros.org/wiki/xacro">
    <xacro:include filename="$(find robot_description)/urdf/robot_macro.xacro" />
    <xacro:include filename="$(find robot_description)/urdf/robot_materials.xacro" />

    <xacro:property name="l00" value="base_link" />
    <xacro:property name="l01" value="link_01" />
    <xacro:property name="l02" value="link_02" />
    <xacro:property name="l03" value="link_03" />
    <xacro:property name="l04" value="link_04" />
    <xacro:property name="l05" value="link_05" />
    <xacro:property name="l06" value="link_06" />

    <!-- robot_description: links -->                
    <m_link_mesh name="${l00}"
                 origin_rpy="0 0 0" origin_xyz="0 0 0"
                 mass="1024"
                 ixx="170.667" ixy="0" ixz="0"
                 iyy="170.667" iyz="0"
                 izz="170.667"
                 meshfile="package://robot_description/meshes/${l00}.STL"
                 material="black"/>
    <m_link_mesh name="${l01}"
                 origin_rpy="0 0 0" origin_xyz="-0 0 0"
                 mass="57.906"
                 ixx="12.679" ixy="0" ixz="0"
                 iyy="12.679" iyz="0"
                 izz="0.651"
                 meshfile="package://robot_description/meshes/${l01}.STL"
                 material="yellow"/>
    <m_link_mesh name="${l02}"
                 origin_rpy="0 0 0" origin_xyz="0 0 0"
                 mass="57.906"
                 ixx="12.679" ixy="0" ixz="0"
                 iyy="12.679" iyz="0"
                 izz="0.651"
                 meshfile="package://robot_description/meshes/${l02}.STL"
                 material="yellow"/>
    <m_link_mesh name="${l03}"
                 origin_rpy="0 0 0" origin_xyz="0 0 0"
                 mass="57.906"
                 ixx="12.679" ixy="0" ixz="0"
                 iyy="12.679" iyz="0"
                 izz="0.651"
                 meshfile="package://robot_description/meshes/${l03}.STL"
                 material="yellow"/>  
    <m_link_mesh name="${l04}"
                 origin_rpy="0 0 0" origin_xyz="0 0 0"
                 mass="57.906"
                 ixx="12.679" ixy="0" ixz="0"
                 iyy="12.679" iyz="0"
                 izz="0.651"
                 meshfile="package://robot_description/meshes/${l04}.STL"
                 material="yellow"/>            
    <m_link_mesh name="${l05}"
                 origin_rpy="0 0 0" origin_xyz="0 0 0"
                 mass="57.906"
                 ixx="12.679" ixy="0" ixz="0"
                 iyy="12.679" iyz="0"
                 izz="0.651"
                 meshfile="package://robot_description/meshes/${l05}.STL" 
                 material="yellow"/>
    <m_link_mesh name="${l06}"
                 origin_rpy="0 0 0" origin_xyz="0 0 0"
                 mass="4.52"
                 ixx="2.44" ixy="0" ixz="0"
                 iyy="2.44" iyz="0"
                 izz="0.22"
                 meshfile="package://robot_description/meshes/${l06}.STL" 
                 material="black"/>
                 
    <!-- robot_description: joints --> 
    <m_joint name="${l00}_${l01}" type="revolute"
             axis_xyz="0 0 1"
             origin_rpy="0 0 0" origin_xyz="0 0 0.525"
             parent="${l00}" child="${l01}"
             limit_e="1000" limit_l="-3.14" limit_u="3.14" limit_v="0.5" />
    <m_joint name="${l01}_${l02}" type="revolute"
             axis_xyz="0 1 0"
             origin_rpy="0 0 0" origin_xyz="0.150 0 0"
             parent="${l01}" child="${l02}"
             limit_e="1000" limit_l="-3.14" limit_u="3.14" limit_v="0.5" />     
    <m_joint name="${l02}_${l03}" type="revolute"
             axis_xyz="0 1 0"
             origin_rpy="0 0 0" origin_xyz="0 0 0.790"
             parent="${l02}" child="${l03}"
             limit_e="1000" limit_l="-3.14" limit_u="3.14" limit_v="0.5" />
    <m_joint name="${l03}_${l04}" type="revolute"
             axis_xyz="1 0 0"
             origin_rpy="0 0 0" origin_xyz="0.835 0 0.250"
             parent="${l03}" child="${l04}"
             limit_e="1000" limit_l="-3.14" limit_u="3.14" limit_v="0.5" />
    <m_joint name="${l04}_${l05}" type="revolute"
             axis_xyz="0 1 0"
             origin_rpy="0 0 0" origin_xyz="0 0 0"
             parent="${l04}" child="${l05}"
             limit_e="1000" limit_l="-3.14" limit_u="3.14" limit_v="0.5" />
     <m_joint name="${l05}_${l06}" type="revolute"
             axis_xyz="0 0 1"
             origin_rpy="0 1.57 0" origin_xyz="0.10 0 0"
             parent="${l05}" child="${l06}"
             limit_e="1000" limit_l="-3.14" limit_u="3.14" limit_v="0.5" />
             
    <gazebo>
        <plugin name="gazebo_ros_control" filename="libgazebo_ros_control.so">
        </plugin>
    </gazebo>
    
</robot>